Dans quel étage R ? - 3 Marvel Universe Network
…
  return(df)

}

df_marvel <- map_dfr(urls, get_table)

3.2 Analyse de données exploratoire

# Personnage apparaissant le plus souvent (en terme de films)

df_marvel |>
  count(Character, sort = TRUE)

# A tibble: 59 × 2
   Character                                          n
   <chr>                                          <int>
 1 Nick Fury                                         11
 2 Steve Rogers Captain America                      11
 3 Tony Stark Iron Man                               10
 4 Bruce Banner Hulk                                  8
 5 Natasha Romanoff Black Widow                       8
 6 Thor                                               8
 7 James Rhodey Rhodes War Machine / Iron Patriot     6
 8 Sam Wilson Falcon                                  6
 9 Virginia Pepper Potts                              6
10 Loki                                               5
# ℹ 49 more rows

# Films faisant intervenir le plus de personnages

df_marvel |>
  count(Movie, sort = TRUE)

# A tibble: 23 × 2
   Movie                                   n
   <chr>                               <int>
 1 Avengers: Endgame                      44
 2 Avengers: Infinity War                 32
 3 Captain America: Civil War             16
 4 Avengers: Age of Ultron                15
 5 Marvel's The Avengers                  11
 6 Captain America: The Winter Soldier     9
 7 Spider-Man: Far From Home               9
 8 Spider-Man: Homecoming                  9
 9 Guardians of the Galaxy Vol. 2          8
10 Black Panther                           7
# ℹ 13 more rows
…
class(network)

[1] "tbl_graph" "igraph"   

# Mesure de centralité, par exemple le degré associé à un noeud

network |> 
  activate(nodes) |> # on considère la table des noeuds ou "vertices"
  mutate(degree = centrality_degree()) |> 
  as_tibble() |>
  arrange(desc(degree))

# A tibble: 82 × 2
   name                                           degree
   <chr>                                           <dbl>
 1 Nick Fury                                          11
 2 Steve Rogers Captain America                       11
 3 Tony Stark Iron Man                                10
 4 Bruce Banner Hulk                                   8
 5 Natasha Romanoff Black Widow                        8
 6 Thor                                                8
 7 Virginia Pepper Potts                               6
 8 James Rhodey Rhodes War Machine / Iron Patriot      6
 9 Sam Wilson Falcon                                   6
10 Loki                                                5
# ℹ 72 more rows
…
